// Jest Snapshot v1, https://goo.gl/fbAQLP

exports[`Card check snapshot 1`] = `
<div
  className="card"
>
  <div
    className="card__flipper"
  >
    <div
      className="card__back-side"
    >
      <svg
        className="card__svg"
        height="85"
        viewBox="0 0 59 85"
        width="59"
      >
        <use
          className="card__svg-use"
          transform="scale(0.35)"
          xlinkHref="test-file-stub#alternate-back"
        />
      </svg>
    </div>
    <div
      className="card__front-side"
    >
      <svg
        className="card__svg"
        height="85"
        viewBox="0 0 59 85"
        width="59"
      >
        <use
          className="card__svg-use"
          transform="scale(0.35)"
          xlinkHref="test-file-stub#club_jack"
        />
      </svg>
    </div>
  </div>
  <div
    className="card__handler"
    onClick={[Function]}
  />
</div>
`;
